<?xml version="1.0" encoding="utf-8"?>
<!-- Generator: Adobe Illustrator 24.0.0, SVG Export Plug-In . SVG Version: 6.00 Build 0)  -->
<svg version="1.1" id="Layer_1" xmlns="http://www.w3.org/2000/svg" xmlns:xlink="http://www.w3.org/1999/xlink" x="0px" y="0px"
	 viewBox="0 0 530 500" enable-background="new 0 0 530 500" xml:space="preserve">
<g>
	
		<circle fill="#88DDFD" stroke="#4D4D4D" stroke-width="4" stroke-linecap="round" stroke-linejoin="round" stroke-miterlimit="10" cx="248.5" cy="277.7" r="208.1"/>
	<g>
		<path fill="#5AC0E0" d="M402.2,342.4c0,3.2-2.6,5.8-5.8,5.8H277.4c-3.2,0-5.8-2.6-5.8-5.8s2.6-5.8,5.8-5.8h119.1
			C399.6,336.6,402.2,339.2,402.2,342.4 M394.1,194.4c0,3.2-2.6,5.8-5.8,5.8H217.3c-3.2,0-5.8-2.6-5.8-5.8s2.6-5.8,5.8-5.8h171.1
			C391.5,188.6,394.1,191.2,394.1,194.4 M195.3,218.7c-3.2,0-5.8-2.6-5.8-5.8s2.6-5.8,5.8-5.8h179.2c3.2,0,5.8,2.6,5.8,5.8
			s-2.6,5.8-5.8,5.8H195.3 M357.1,231.4c0,3.2-2.6,5.8-5.8,5.8H189.5c-3.2,0-5.8-2.6-5.8-5.8s2.6-5.8,5.8-5.8h161.8
			C354.5,225.6,357.1,228.2,357.1,231.4 M357.1,170.2c3.2,0,5.8,2.6,5.8,5.8s-2.6,5.8-5.8,5.8H238.1c-3.2,0-5.8-2.6-5.8-5.8
			s2.6-5.8,5.8-5.8H357.1 M264.6,157.4c0-3.2,2.6-5.8,5.8-5.8h112.1c3.2,0,5.8,2.6,5.8,5.8s-2.6,5.8-5.8,5.8H270.4
			C267.2,163.2,264.6,160.6,264.6,157.4 M383.7,133.2c3.2,0,5.8,2.6,5.8,5.8s-2.6,5.8-5.8,5.8H253.1c-3.2,0-5.8-2.6-5.8-5.8
			s2.6-5.8,5.8-5.8H383.7 M233.4,102c0-3.2,2.6-5.8,5.8-5.8h18.5c3.2,0,5.8,2.6,5.8,5.8s-2.6,5.8-5.8,5.8h-18.5
			C236,107.7,233.4,105.1,233.4,102 M197.6,102c0-3.2,1.4-5.8,4.6-5.8h1.2c3.2,0,4.6,2.6,4.6,5.8s-1.4,5.8-4.6,5.8h-1.2
			C199,107.7,197.6,105.1,197.6,102 M154.8,120.4c0-3.2,2.6-5.8,5.8-5.8h111c3.2,0,5.8,2.6,5.8,5.8s-2.6,5.8-5.8,5.8h-111
			C157.4,126.2,154.8,123.6,154.8,120.4 M149,133.2h23.1c3.2,0,5.8,2.6,5.8,5.8s-2.6,5.8-5.8,5.8H149c-3.2,0-5.8-2.6-5.8-5.8
			S145.9,133.2,149,133.2 M164.1,157.4c0,3.2-1.4,5.8-4.6,5.8c-3.2,0-4.6-2.6-4.6-5.8s1.4-5.8,4.6-5.8
			C162.6,151.7,164.1,154.2,164.1,157.4 M139.8,255.7c-3.2,0-5.8-2.6-5.8-5.8s2.6-5.8,5.8-5.8H356c3.2,0,5.8,2.6,5.8,5.8
			s-2.6,5.8-5.8,5.8H139.8 M171,274.2c-3.2,0-5.8-2.6-5.8-5.8s2.6-5.8,5.8-5.8h188.4c3.2,0,5.8,2.6,5.8,5.8s-2.6,5.8-5.8,5.8H171
			 M182.6,292.7c-3.2,0-5.8-2.6-5.8-5.8s2.6-5.8,5.8-5.8h197.7c3.2,0,5.8,2.6,5.8,5.8s-2.6,5.8-5.8,5.8H182.6 M205.7,311.2
			c-3.2,0-5.8-2.6-5.8-5.8s2.6-5.8,5.8-5.8h166.5c3.2,0,5.8,2.6,5.8,5.8s-2.6,5.8-5.8,5.8H205.7 M240.4,329.7
			c-3.2,0-5.8-2.6-5.8-5.8s2.6-5.8,5.8-5.8h143.4c3.2,0,5.8,2.6,5.8,5.8s-2.6,5.8-5.8,5.8H240.4"/>
		<path fill="#5AC0E0" d="M160.6,126.2h111c3.2,0,5.8-2.6,5.8-5.8s-2.6-5.8-5.8-5.8h-111c-3.2,0-5.8,2.6-5.8,5.8
			S157.4,126.2,160.6,126.2"/>
		<path fill="#5AC0E0" d="M321.3,120.4c0,3.2,2.6,5.8,5.8,5.8h60.7c-4.4-4-9-7.9-13.7-11.6h-47C323.9,114.7,321.3,117.2,321.3,120.4
			"/>
		<path fill="#5AC0E0" d="M317.8,101.9c0,3.2,2.6,5.8,5.8,5.8h40.9c-6.1-4.2-12.5-8-19-11.6h-21.9
			C320.4,96.2,317.8,98.7,317.8,101.9"/>
		<path fill="#5AC0E0" d="M246.2,83.4c0-3.2-2.6-5.8-5.8-5.8h-40.5c-11.8,2.9-23.3,6.7-34.2,11.6h74.7
			C243.6,89.2,246.2,86.6,246.2,83.4"/>
		<path fill="#5AC0E0" d="M202.2,107.7h1.2c3.2,0,4.6-2.6,4.6-5.8s-1.4-5.8-4.6-5.8h-1.2c-3.2,0-4.6,2.6-4.6,5.8
			S199,107.7,202.2,107.7"/>
		<path fill="#5AC0E0" d="M239.2,107.7h18.5c3.2,0,5.8-2.6,5.8-5.8s-2.6-5.8-5.8-5.8h-18.5c-3.2,0-5.8,2.6-5.8,5.8
			C233.4,105.1,236,107.7,239.2,107.7"/>
		<path fill="#5AC0E0" d="M158.3,101.9c0-3.2-2.6-5.8-5.8-5.8h-1.1c-6.6,3.5-12.9,7.4-19,11.6h20.1
			C155.7,107.7,158.3,105.1,158.3,101.9"/>
		<path fill="#5AC0E0" d="M149.1,144.7h23.1c3.2,0,5.8-2.6,5.8-5.8s-2.6-5.8-5.8-5.8h-23.1c-3.2,0-5.8,2.6-5.8,5.8
			S145.9,144.7,149.1,144.7"/>
		<path fill="#5AC0E0" d="M247.3,138.9c0,3.2,2.6,5.8,5.8,5.8h130.6c3.2,0,5.8-2.6,5.8-5.8s-2.6-5.8-5.8-5.8H253.1
			C249.9,133.2,247.3,135.7,247.3,138.9"/>
		<path fill="#5AC0E0" d="M382.6,163.2c3.2,0,5.8-2.6,5.8-5.8s-2.6-5.8-5.8-5.8H270.4c-3.2,0-5.8,2.6-5.8,5.8s2.6,5.8,5.8,5.8H382.6
			"/>
		<path fill="#5AC0E0" d="M159.5,151.6c-3.2,0-4.6,2.6-4.6,5.8s1.4,5.8,4.6,5.8c3.2,0,4.6-2.6,4.6-5.8S162.7,151.6,159.5,151.6"/>
		<path fill="#5AC0E0" d="M232.3,175.9c0,3.2,2.6,5.8,5.8,5.8h119.1c3.2,0,5.8-2.6,5.8-5.8s-2.6-5.8-5.8-5.8H238.1
			C234.9,170.1,232.3,172.7,232.3,175.9"/>
		<path fill="#5AC0E0" d="M217.3,188.6c-3.2,0-5.8,2.6-5.8,5.8s2.6,5.8,5.8,5.8h171.1c3.2,0,5.8-2.6,5.8-5.8s-2.6-5.8-5.8-5.8H217.3
			"/>
		<path fill="#5AC0E0" d="M63.5,212.9c0-3.2-2.6-5.8-5.8-5.8h-2.6c-1.4,3.8-2.7,7.7-3.8,11.6h6.4C60.9,218.7,63.5,216.1,63.5,212.9"
			/>
		<path fill="#5AC0E0" d="M380.3,212.9c0-3.2-2.6-5.8-5.8-5.8H195.3c-3.2,0-5.8,2.6-5.8,5.8s2.6,5.8,5.8,5.8h179.2
			C377.7,218.7,380.3,216.1,380.3,212.9"/>
		<path fill="#5AC0E0" d="M77.4,231.4c0-3.2-2.6-5.8-5.8-5.8H49.3c-1,3.8-1.9,7.7-2.7,11.6h24.9C74.8,237.2,77.4,234.6,77.4,231.4"
			/>
		<path fill="#5AC0E0" d="M189.5,225.6c-3.2,0-5.8,2.6-5.8,5.8s2.6,5.8,5.8,5.8h161.8c3.2,0,5.8-2.6,5.8-5.8s-2.6-5.8-5.8-5.8H189.5
			"/>
		<path fill="#5AC0E0" d="M85.5,249.9c0-3.2-2.6-5.8-5.8-5.8H45.4c-0.6,3.8-1.2,7.7-1.6,11.6h35.8C82.9,255.7,85.5,253.1,85.5,249.9
			"/>
		<path fill="#5AC0E0" d="M361.8,249.9c0-3.2-2.6-5.8-5.8-5.8H139.8c-3.2,0-5.8,2.6-5.8,5.8s2.6,5.8,5.8,5.8H356
			C359.2,255.7,361.8,253.1,361.8,249.9"/>
		<path fill="#5AC0E0" d="M365.2,268.4c0-3.2-2.6-5.8-5.8-5.8H171c-3.2,0-5.8,2.6-5.8,5.8s2.6,5.8,5.8,5.8h188.4
			C362.6,274.2,365.2,271.6,365.2,268.4"/>
		<path fill="#5AC0E0" d="M105.1,268.4c0-3.2-2.6-5.8-5.8-5.8H43.2c-0.3,3.8-0.4,7.7-0.5,11.6h56.6
			C102.5,274.2,105.1,271.6,105.1,268.4"/>
		<path fill="#5AC0E0" d="M386,286.9c0-3.2-2.6-5.8-5.8-5.8H182.6c-3.2,0-5.8,2.6-5.8,5.8s2.6,5.8,5.8,5.8h197.7
			C383.5,292.7,386,290.1,386,286.9"/>
		<path fill="#5AC0E0" d="M377.9,305.4c0-3.2-2.6-5.8-5.8-5.8H205.7c-3.2,0-5.8,2.6-5.8,5.8s2.6,5.8,5.8,5.8h166.5
			C375.4,311.2,377.9,308.6,377.9,305.4"/>
		<path fill="#5AC0E0" d="M389.5,323.9c0-3.2-2.6-5.8-5.8-5.8H240.4c-3.2,0-5.8,2.6-5.8,5.8s2.6,5.8,5.8,5.8h143.4
			C386.9,329.7,389.5,327.1,389.5,323.9"/>
		<path fill="#5AC0E0" d="M139.8,286.9c0-3.2-2.6-5.8-5.8-5.8H42.8c0.1,3.9,0.2,7.7,0.5,11.6H134
			C137.2,292.7,139.8,290.1,139.8,286.9"/>
		<path fill="#5AC0E0" d="M158.3,305.4c0-3.2-2.6-5.8-5.8-5.8H43.9c0.4,3.9,0.9,7.7,1.6,11.6h107.1
			C155.7,311.2,158.3,308.6,158.3,305.4"/>
		<path fill="#5AC0E0" d="M158.3,323.9c0-3.2-2.6-5.8-5.8-5.8H46.7c0.8,3.9,1.7,7.7,2.7,11.6h103.2
			C155.7,329.7,158.3,327.1,158.3,323.9"/>
		<path fill="#5AC0E0" d="M271.6,342.4c0,3.2,2.6,5.8,5.8,5.8h119.1c3.2,0,5.8-2.6,5.8-5.8s-2.6-5.8-5.8-5.8H277.4
			C274.2,336.6,271.6,339.2,271.6,342.4"/>
		<path fill="#5AC0E0" d="M270.4,360.9c0,3.2,2.6,5.8,5.8,5.8H434c1.8-3.8,3.5-7.6,5.1-11.6H276.2
			C273,355.1,270.4,357.7,270.4,360.9"/>
		<path fill="#5AC0E0" d="M263.5,373.6c-3.2,0-5.8,2.6-5.8,5.8s2.6,5.8,5.8,5.8H424c2.3-3.8,4.5-7.6,6.6-11.6H263.5"/>
		<path fill="#5AC0E0" d="M245,397.9c0,3.2,2.6,5.8,5.8,5.8h160.4c2.9-3.8,5.7-7.6,8.3-11.6H250.8C247.6,392.1,245,394.7,245,397.9"
			/>
		<path fill="#5AC0E0" d="M158.3,342.4c0-3.2-2.6-5.8-5.8-5.8H51.3c1.2,3.9,2.4,7.8,3.8,11.6h97.4
			C155.7,348.2,158.3,345.6,158.3,342.4"/>
		<path fill="#5AC0E0" d="M175.6,360.9c0-3.2-2.6-5.8-5.8-5.8H57.8c1.6,3.9,3.3,7.8,5.1,11.6h107
			C173.1,366.7,175.6,364.1,175.6,360.9"/>
		<path fill="#5AC0E0" d="M186.1,379.4c0-3.2-2.6-5.8-5.8-5.8H66.4c2.1,3.9,4.3,7.8,6.6,11.6h107.3
			C183.5,385.2,186,382.6,186.1,379.4"/>
		<path fill="#5AC0E0" d="M184.9,397.9c0-3.2-2.6-5.8-5.8-5.8H77.4c2.7,4,5.4,7.8,8.3,11.6h93.3
			C182.3,403.7,184.9,401.1,184.9,397.9"/>
		<path fill="#5AC0E0" d="M233.4,416.4c0,3.2,2.6,5.8,5.8,5.8H395c3.7-3.7,7.2-7.6,10.6-11.6H239.2
			C236,410.6,233.4,413.2,233.4,416.4"/>
		<path fill="#5AC0E0" d="M221.9,434.9c0,3.2,2.6,5.8,5.8,5.8H374c4.7-3.7,9.3-7.5,13.7-11.6H227.7
			C224.5,429.1,221.9,431.7,221.9,434.9"/>
		<path fill="#5AC0E0" d="M216.1,453.4c0,3.2,2.6,5.8,5.8,5.8h123.6c6.6-3.5,12.9-7.4,19-11.6H221.9
			C218.7,447.6,216.1,450.2,216.1,453.4"/>
		<path fill="#5AC0E0" d="M184.9,416.4c0-3.2-2.6-5.8-5.8-5.8H91.4c3.4,4,6.9,7.8,10.6,11.6h77.1
			C182.3,422.2,184.9,419.6,184.9,416.4"/>
		<path fill="#5AC0E0" d="M184.9,434.9c0-3.2-2.6-5.8-5.8-5.8h-69.9c4.4,4,9,7.9,13.7,11.6h56.2
			C182.3,440.7,184.9,438.1,184.9,434.9"/>
		<path fill="#5AC0E0" d="M188.4,453.4c0-3.2-2.6-5.8-5.8-5.8h-50.2c6.1,4.2,12.5,8,19,11.6h31.1
			C185.8,459.2,188.4,456.6,188.4,453.4"/>
		<path fill="#5AC0E0" d="M199.9,477.6H297c11.8-2.9,23.3-6.7,34.2-11.6H165.7C176.6,470.9,188.1,474.8,199.9,477.6"/>
	</g>
	<path fill="none" stroke="#4D4D4D" stroke-width="4" stroke-linecap="round" stroke-linejoin="round" stroke-miterlimit="10" d="
		M371.4,86.7C437.8,29.1,485.5-4,493.7,4.2c3.7,3.7-1.1,15.6-12.8,33.6"/>
	
		<path fill="#A3CC6C" stroke="#4D4D4D" stroke-width="4" stroke-linecap="round" stroke-linejoin="round" stroke-miterlimit="10" d="
		M181.7,118c-2.7,1.7-6.3,3-9,1.3c-1.4-0.9-2.2-2.4-2.7-3.9c-2.1-6.2,0.8-13.3,5.7-17.7c4.9-4.4,15.4-6,17.7,2.4
		C195.1,106.7,186.6,114.8,181.7,118L181.7,118z"/>
	
		<path fill="#A3CC6C" stroke="#4D4D4D" stroke-width="4" stroke-linecap="round" stroke-linejoin="round" stroke-miterlimit="10" d="
		M214.4,104.4c3.3-1.8,7.6-1.6,10.7,0.4c1.1,0.7,2.1,1.8,2.3,3.1c0.3,1.6-0.7,3.2-2.1,4.2s-3,1.3-4.6,1.7c-1.9,0.4-3.7,0.9-5.6,1.3
		c-0.5,0.1-1.1,0.2-1.6,0.1c-1-0.3-1.4-1.5-1.5-2.5c-0.2-2.5,0.3-5,1.7-7.2"/>
	<g>
		
			<path fill="#9F94C4" stroke="#4D4D4D" stroke-width="4" stroke-linecap="round" stroke-linejoin="round" stroke-miterlimit="10" d="
			M443.8,105.1l6.8-17.2c2.7,0.1,5.4-1.1,7.2-3.4c3-3.8,2.4-9.4-1.5-12.4c-3.8-3-9.4-2.4-12.4,1.5c-1.8,2.3-2.3,5.2-1.6,7.8
			l-15.2,10.6l0,0c-4.8-9-3.9-20.8,2.9-29.4c9.1-11.5,26.9-14.9,38.4-5.8c11.5,9.1,12.4,27.2,3.3,38.7
			C465,104.1,453.7,107.7,443.8,105.1L443.8,105.1z"/>
		
			<path fill="#CC731B" stroke="#4D4D4D" stroke-width="4" stroke-linecap="round" stroke-linejoin="round" stroke-miterlimit="10" d="
			M411.2,60.2L376.7,33c-1-0.8-1.2-2.2-0.4-3.2l11.5-14.5c0.8-1,2.2-1.2,3.2-0.4l34.5,27.2c1,0.8,1.2,2.2,0.4,3.2l-11.5,14.5
			C413.7,60.8,412.2,61,411.2,60.2z"/>
		<path fill="none" stroke="#4D4D4D" stroke-width="4" stroke-linecap="round" stroke-linejoin="round" stroke-miterlimit="10" d="
			M383.9,23.9l45.4,35.8"/>
		<path fill="none" stroke="#4D4D4D" stroke-width="4" stroke-linecap="round" stroke-linejoin="round" stroke-miterlimit="10" d="
			M414.7,33.5l-14.3,18.1"/>
		<path fill="none" stroke="#4D4D4D" stroke-width="4" stroke-linecap="round" stroke-linejoin="round" stroke-miterlimit="10" d="
			M402,23.4l-14.3,18.1"/>
		
			<path fill="#CC731B" stroke="#4D4D4D" stroke-width="4" stroke-linecap="round" stroke-linejoin="round" stroke-miterlimit="10" d="
			M478.3,113.3l34.5,27.2c1,0.8,2.5,0.6,3.2-0.4l11.5-14.5c0.8-1,0.6-2.5-0.4-3.2l-34.5-27.2c-1-0.8-2.5-0.6-3.2,0.4L477.9,110
			C477.1,111,477.3,112.5,478.3,113.3L478.3,113.3z"/>
		<path fill="none" stroke="#4D4D4D" stroke-width="4" stroke-linecap="round" stroke-linejoin="round" stroke-miterlimit="10" d="
			M520,131.4l-45.4-35.8"/>
		<path fill="none" stroke="#4D4D4D" stroke-width="4" stroke-linecap="round" stroke-linejoin="round" stroke-miterlimit="10" d="
			M503.5,103.7l-14.3,18.1"/>
		<path fill="none" stroke="#4D4D4D" stroke-width="4" stroke-linecap="round" stroke-linejoin="round" stroke-miterlimit="10" d="
			M516.2,113.8l-14.3,18.1"/>
	</g>
	<path fill="none" stroke="#4D4D4D" stroke-width="4" stroke-linecap="round" stroke-linejoin="round" stroke-miterlimit="10" d="
		M307.1,354.3c-26.5-24.7-54.5-51.7-83.1-80.3C88.5,138.5-10.3,17.8,3.2,4.2c8.1-8.1,54.8,24.2,120.1,80.6"/>
	<path fill="none" stroke="#4D4D4D" stroke-width="4" stroke-linecap="round" stroke-linejoin="round" stroke-miterlimit="10" d="
		M374,414.5c-1.4-1.2-2.7-2.3-4.1-3.5"/>
	<path fill="none" stroke="#4D4D4D" stroke-width="4" stroke-linecap="round" stroke-linejoin="round" stroke-miterlimit="10" d="
		M437.3,403.2c41.2,50.1,63.3,84.6,56.4,91.5c-7.8,7.8-50.9-21.5-111.9-73.5"/>
	<path fill="none" stroke="#4D4D4D" stroke-width="4" stroke-linecap="round" stroke-linejoin="round" stroke-miterlimit="10" d="
		M414.7,122.6C376.9,166.5,327.9,219,273,274C137.6,409.4,16.8,508.2,3.2,494.7c-6.7-6.7,14.3-39.9,53.8-88.3"/>
	<path fill="none" stroke="#4D4D4D" stroke-width="4" stroke-linecap="round" stroke-linejoin="round" stroke-miterlimit="10" d="
		M429.8,104.7c-2,2.4-4,4.8-6,7.2"/>
	<g>
		
			<path fill="#CC731B" stroke="#4D4D4D" stroke-width="4" stroke-linecap="round" stroke-linejoin="round" stroke-miterlimit="10" d="
			M317.9,421.4l-31,31.2c-0.9,0.9-2.4,0.9-3.3,0l-13.1-13c-0.9-0.9-0.9-2.4,0-3.3l31-31.2c0.9-0.9,2.4-0.9,3.3,0l13.1,13
			C318.7,419,318.8,420.4,317.9,421.4z"/>
		<path fill="none" stroke="#4D4D4D" stroke-width="4" stroke-linecap="round" stroke-linejoin="round" stroke-miterlimit="10" d="
			M278.7,444.4l40.7-41"/>
		<path fill="none" stroke="#4D4D4D" stroke-width="4" stroke-linecap="round" stroke-linejoin="round" stroke-miterlimit="10" d="
			M291.7,414.9l16.4,16.3"/>
		<path fill="none" stroke="#4D4D4D" stroke-width="4" stroke-linecap="round" stroke-linejoin="round" stroke-miterlimit="10" d="
			M280.3,426.4l16.4,16.3"/>
		
			<path fill="#CC731B" stroke="#4D4D4D" stroke-width="4" stroke-linecap="round" stroke-linejoin="round" stroke-miterlimit="10" d="
			M378.1,360.7l31-31.2c0.9-0.9,0.9-2.4,0-3.3l-13.1-13c-0.9-0.9-2.4-0.9-3.3,0l-31,31.2c-0.9,0.9-0.9,2.4,0,3.3l13.1,13
			C375.8,361.6,377.2,361.6,378.1,360.7z"/>
		<path fill="none" stroke="#4D4D4D" stroke-width="4" stroke-linecap="round" stroke-linejoin="round" stroke-miterlimit="10" d="
			M400.9,321.4l-40.7,41"/>
		<path fill="none" stroke="#4D4D4D" stroke-width="4" stroke-linecap="round" stroke-linejoin="round" stroke-miterlimit="10" d="
			M371.5,334.5l16.4,16.3"/>
		<path fill="none" stroke="#4D4D4D" stroke-width="4" stroke-linecap="round" stroke-linejoin="round" stroke-miterlimit="10" d="
			M382.9,323l16.4,16.3"/>
		
			<circle fill="#9F94C4" stroke="#4D4D4D" stroke-width="4" stroke-linecap="round" stroke-linejoin="round" stroke-miterlimit="10" cx="339.8" cy="382.9" r="26.6"/>
		<path fill="#655F84" d="M349.4,380.1c-5.1-5.1-12.3,2-14.5-0.1c-1.1-1.1-0.9-2,0.3-3.2c1-1,2.3-1.4,4.2-1.6l-0.4-5.1
			c-2.3-0.1-4.5,0.4-6.5,1.9l-2.8-2.8l-3.1,3.1l2.9,2.9c-2.1,3.3-1.8,6.8,1,9.6c4.9,4.9,12.3-2,14.6,0.2c1.1,1.1,1,2.1-0.4,3.5
			c-1.2,1.2-2.8,1.9-5.4,2.3l1.2,5.3c2.6-0.1,5.3-1.5,7-2.8l2.8,2.8l3.1-3.1l-3-3C352.8,386.3,352.1,382.8,349.4,380.1"/>
		<path fill="none" stroke="#4D4D4D" stroke-width="4" stroke-linecap="round" stroke-linejoin="round" stroke-miterlimit="10" d="
			M313.3,383.1l53.2-0.2"/>
	</g>
	
		<path fill="#A3CC6C" stroke="#4D4D4D" stroke-width="4" stroke-linecap="round" stroke-linejoin="round" stroke-miterlimit="10" d="
		M248.5,69.6c-7.2,0-14.4,0.4-21.4,1.1c4.9,1.4,11.5,2.1,14.6,3.2c7.4,2.5,14.5,5.9,21.1,10c2.4,1.5,4.9,3.2,6.1,5.9
		c2.2,5-1.5,11.1,0.5,16.2c1,2.6,3.3,4.4,5.5,6.1c9.2,7,18.6,13.8,28.2,20.2c1.6,1.1,3.3,2.2,5.2,2c3.2-0.4,4.8-4.3,4.6-7.6
		s-1.4-6.5-0.6-9.7c1-4.2,5-6.8,8.5-9.3c7-4.8,13.3-10.6,18.8-17C312,77.1,281.1,69.6,248.5,69.6L248.5,69.6z"/>
	
		<path fill="#A3CC6C" stroke="#4D4D4D" stroke-width="4" stroke-linecap="round" stroke-linejoin="round" stroke-miterlimit="10" d="
		M273.6,356.9c-6.1-4.7-13.5-7.3-20.7-10.1c-18.8-7.1-37.3-15.1-55.4-23.8c-10.3-5-21.2-11-25.8-21.5c-3.7-8.6-3.6-20.4-12.1-24.4
		c-6.6-3.1-13.3,0.9-19.3,3.5c-0.5-6.1,0.4-12.3,2-18.2c0.5-2,1.2-4.1,2.9-5.4c2.4-1.9,12.5-5.5,15.4-4.9c8.7,0,12.2,7.9,20.7,9.6
		c0.6,0.1,1.3,0.2,1.7-0.2c0.4-0.3,0.5-1,0.6-1.5c0.7-6.9-0.8-15.5,2.4-21.9c1.7-3.4,4.8-5.9,7.7-8.4c20.7-17.1,39.9-36.1,57.2-56.6
		c1.5-1.7,3-3.6,3.7-5.8c0.9-2.9,0.3-5.9-0.4-8.8c-0.9-4-1.7-8-2.6-12c-0.4-1.8-0.8-3.6-2.1-4.9c-1.4-1.5-3.6-1.9-5.6-2.3
		c-12.5-2.4-25-4.9-37.5-7.3c-2.6-0.5-5.7-1-7.8,0.7c-2.1,1.7-2.4,4.7-2.8,7.4c-1.6,11.2-7.8,21.6-17,28.2c-1.7,1.2-3.5,2.3-5.6,2.5
		c-3.2,0.3-6.2-1.6-8.8-3.5c-4.7-3.3-9.4-6.6-12.8-11.2s-5.1-10.8-2.9-16.1c1.4-3.6,4.4-6.3,6.5-9.5c1.5-2.3,4.4-8.4,0.7-10.1
		c-0.1,0-0.2-0.1-0.3-0.1c-6.1-2.2-20.1,2.8-26.8,3.2c-6.8,0.5-13.7,0.6-20.6,0.4c-18.7,17-34.2,37.4-45.7,60.2
		c-0.1,6.9-0.2,13.8-0.2,20.7c0,6.1,0.1,12.4,2.1,18.2c3.8,10.6,13.6,17.7,21.2,26.1c16.3,17.8,24.5,43.6,45.5,55.6
		c7.1,4,15,6.1,22.3,9.7c7.3,3.6,14.2,9.4,16,17.3c1,4.5,0.3,9.2-0.2,13.8c-1.1,10.5-0.8,21.5,3.4,31.1
		c4.7,10.9,13.8,19.3,18.7,30.1c9.9,21.8,0.4,46.9,0,71c7,2,14.2,3.6,21.5,4.9c0.2-0.2,0.3-0.4,0.5-0.6c5-6.4,7.7-14.2,11.3-21.4
		c12.1-24.6,33.8-42.8,50.8-64.4c4.6-5.9,9.1-12.5,9.1-20C284.6,368.7,279.8,361.6,273.6,356.9L273.6,356.9z"/>
	<g>
		
			<path fill="#A3CC6C" stroke="#4D4D4D" stroke-width="4" stroke-linecap="round" stroke-linejoin="round" stroke-miterlimit="10" d="
			M450.8,228.8c-6.5,0.4-13.1,0.8-19.6,1.3c-2.2,0.1-4.8,0.1-6.3-1.5c-1.2-1.4-1.2-3.5-1.5-5.3c-1.4-7.5-10-11.8-17.6-11
			c-7.6,0.7-14.3,5.1-20.6,9.3c-5.3,3.5-10.8,7.4-13,13.4c-1.4,3.8-1.1,8-0.9,12.1c1,14.9,1.9,29.9,2.9,44.8
			c0.1,1.3,0.2,2.7,0.6,3.9c0.8,2.1,2.6,3.6,4.4,4.8c9.2,5.9,22,5.5,29.8,13.2c4.8,4.6,6.8,11.4,7.5,18c0.7,6.6,0.2,13.3,1,19.9
			c1.1,10.6,5.3,20.7,11.8,29.1c17.3-30.4,27.2-65.5,27.2-103C456.6,260.8,454.5,244.5,450.8,228.8L450.8,228.8z"/>
		
			<path fill="#A3CC6C" stroke="#4D4D4D" stroke-width="4" stroke-linecap="round" stroke-linejoin="round" stroke-miterlimit="10" d="
			M388.8,173.5c-0.9,3.2,0.7,7.1-1.4,9.7c-1.2,1.5-3.1,2-4.9,2.7c-7.8,3.2-12.5,12.5-10.4,20.6c11.5,0.1,21.5-9.8,33-9.2
			c8.8,0.4,16,6.9,23.4,11.7c5.9,3.9,12.4,6.8,19.2,8.8c-4.5-14.9-10.5-29-18-42.3c-8.1-1.1-16.1-3.7-23.9-6.1
			c-3.1-0.9-6.4-1.8-9.6-1.5C393,168.4,389.7,170.3,388.8,173.5L388.8,173.5z"/>
	</g>
</g>
</svg>
